<svg width="21" height="19" viewBox="0 0 21 19" fill="none" xmlns="http://www.w3.org/2000/svg">
<path fill-rule="evenodd" clip-rule="evenodd" d="M15.19 0.487793C16.531 0.487793 17.821 1.01779 18.77 1.96879C19.72 2.91779 20.251 4.19779 20.251 5.53779V13.4378C20.251 16.2278 17.981 18.4878 15.19 18.4878H5.31098C2.51998 18.4878 0.250977 16.2278 0.250977 13.4378V5.53779C0.250977 2.74779 2.50998 0.487793 5.31098 0.487793H15.19ZM16.781 7.02779L16.861 6.94779C17.1 6.65779 17.1 6.23779 16.85 5.94779C16.711 5.79879 16.52 5.70779 16.321 5.68779C16.111 5.67679 15.911 5.74779 15.76 5.88779L11.251 9.48779C10.671 9.96879 9.83998 9.96879 9.25098 9.48779L4.75098 5.88779C4.43998 5.65779 4.00998 5.68779 3.75098 5.95779C3.48098 6.22779 3.45098 6.65779 3.67998 6.95779L3.81098 7.08779L8.36098 10.6378C8.92098 11.0778 9.59998 11.3178 10.311 11.3178C11.02 11.3178 11.711 11.0778 12.27 10.6378L16.781 7.02779Z" fill="#299657"/>
</svg>
